<svg version="1.1" xmlns="http://www.w3.org/2000/svg" xmlns:xlink="http://www.w3.org/1999/xlink" x="0px" y="0px"
	 viewBox="0 0 27.9 46" style="enable-background:new 0 0 27.9 46;" xml:space="preserve">
<g>
	<g>
		<path style="fill: #FFFFFF;" d="M22.2,0c1.4,0,2.8,0.5,3.9,1.6c2.3,2.2,2.4,5.8,0.2,8.1L13.6,23l12.7,13.3c2.2,2.3,2.1,5.9-0.2,8.1
			c-2.3,2.2-5.9,2.1-8.1-0.2L1.6,27c-2.1-2.2-2.1-5.7,0-7.9L18.1,1.8C19.2,0.6,20.7,0,22.2,0z"/>
	</g>
</g>
</svg>
